{
    "openapi": "3.0.0",
    "info": {
        "title": "Travelling Salesman API Document",
        "description": "The app that the `salesman` will be using is following the concept and model of `Google Trips`: the\r\n    `user` or the `supervisor/manager` plan for the trip with stated things to do at each location, `report`\r\n    on `arrival/departure time` and `actual time` spent at customers site. ",
        "version": "1.0.0"
    },
    "servers": [
        {
            "url": "http://3.0.137.63/travelling_salesman/public/api",
            "description": "OpenApi host"
        }
    ],
    "paths": {
        "/admin/company/add": {
            "post": {
                "tags": [
                    "Admin Controller"
                ],
                "summary": "Add company",
                "description": "",
                "operationId": "addCompany",
                "parameters": [
                    {
                        "name": "auth_token",
                        "in": "header",
                        "description": "The authorization token",
                        "required": true,
                        "schema": {
                            "type": "string"
                        }
                    },
                    {
                        "name": "name",
                        "in": "query",
                        "description": "The company name",
                        "required": true,
                        "schema": {
                            "type": "string",
                            "maxLength": 255,
                            "minLength": 4
                        }
                    },
                    {
                        "name": "contact",
                        "in": "query",
                        "description": "The company contact info(email, phone number etc.)",
                        "required": true,
                        "schema": {
                            "type": "string",
                            "maxLength": 255,
                            "minLength": 4
                        }
                    },
                    {
                        "name": "address",
                        "in": "query",
                        "description": "The company address",
                        "required": true,
                        "schema": {
                            "type": "string",
                            "maxLength": 255,
                            "minLength": 4
                        }
                    },
                    {
                        "name": "latitude",
                        "in": "query",
                        "description": "The current latitude of company",
                        "required": true,
                        "schema": {
                            "type": "number",
                            "format": "double"
                        }
                    },
                    {
                        "name": "longitude",
                        "in": "query",
                        "description": "The current longitude of company",
                        "required": true,
                        "schema": {
                            "type": "number",
                            "format": "double"
                        }
                    }
                ],
                "responses": {
                    "201": {
                        "description": "add new company success"
                    },
                    "400": {
                        "description": "parameter error"
                    },
                    "403": {
                        "description": "authorize error"
                    },
                    "404": {
                        "description": "not found error"
                    },
                    "500": {
                        "description": "internal server error"
                    }
                }
            }
        },
        "/admin/company/edit/{_id}": {
            "put": {
                "tags": [
                    "Admin Controller"
                ],
                "summary": "Edit company",
                "description": "",
                "operationId": "editCompany",
                "parameters": [
                    {
                        "name": "auth_token",
                        "in": "header",
                        "description": "The authorization token",
                        "required": true,
                        "schema": {
                            "type": "string"
                        }
                    },
                    {
                        "name": "_id",
                        "in": "path",
                        "description": "The company Object Id",
                        "required": true,
                        "schema": {
                            "type": "string"
                        }
                    },
                    {
                        "name": "name",
                        "in": "query",
                        "description": "The company name",
                        "required": true,
                        "schema": {
                            "type": "string",
                            "maxLength": 255,
                            "minLength": 4
                        }
                    },
                    {
                        "name": "contact",
                        "in": "query",
                        "description": "The company contact info(email, phone number etc.)",
                        "required": true,
                        "schema": {
                            "type": "string",
                            "maxLength": 255,
                            "minLength": 4
                        }
                    },
                    {
                        "name": "address",
                        "in": "query",
                        "description": "The company address",
                        "required": true,
                        "schema": {
                            "type": "string",
                            "maxLength": 255,
                            "minLength": 4
                        }
                    },
                    {
                        "name": "latitude",
                        "in": "query",
                        "description": "The current latitude of company",
                        "required": true,
                        "schema": {
                            "type": "number",
                            "format": "double"
                        }
                    },
                    {
                        "name": "longitude",
                        "in": "query",
                        "description": "The current longitude of company",
                        "required": true,
                        "schema": {
                            "type": "number",
                            "format": "double"
                        }
                    }
                ],
                "responses": {
                    "200": {
                        "description": "edit company success"
                    },
                    "400": {
                        "description": "parameter error"
                    },
                    "403": {
                        "description": "authorize error"
                    },
                    "404": {
                        "description": "not found error"
                    },
                    "500": {
                        "description": "internal server error"
                    }
                }
            }
        },
        "/admin/company/delete/{_id}": {
            "delete": {
                "tags": [
                    "Admin Controller"
                ],
                "summary": "Delete company",
                "description": "",
                "operationId": "deleteCompany",
                "parameters": [
                    {
                        "name": "auth_token",
                        "in": "header",
                        "description": "The authorization token",
                        "required": true,
                        "schema": {
                            "type": "string"
                        }
                    },
                    {
                        "name": "_id",
                        "in": "path",
                        "description": "The company Object Id",
                        "required": true,
                        "schema": {
                            "type": "string"
                        }
                    }
                ],
                "responses": {
                    "200": {
                        "description": "delete company success"
                    },
                    "400": {
                        "description": "parameter error"
                    },
                    "403": {
                        "description": "authorize error"
                    },
                    "404": {
                        "description": "not found error"
                    },
                    "500": {
                        "description": "internal server error"
                    }
                }
            }
        },
        "/admin/company": {
            "get": {
                "tags": [
                    "Admin Controller"
                ],
                "summary": "Get all company list",
                "description": "",
                "operationId": "getCompany",
                "parameters": [
                    {
                        "name": "auth_token",
                        "in": "header",
                        "description": "The authorization token",
                        "required": true,
                        "schema": {
                            "type": "string"
                        }
                    }
                ],
                "responses": {
                    "200": {
                        "description": "all company list get successfully"
                    },
                    "400": {
                        "description": "parameter error"
                    },
                    "403": {
                        "description": "authorize error"
                    },
                    "404": {
                        "description": "not found error"
                    },
                    "500": {
                        "description": "internal server error"
                    }
                }
            }
        },
        "/admin/company/{_id}": {
            "get": {
                "tags": [
                    "Admin Controller"
                ],
                "summary": "Get company info by Id",
                "description": "",
                "operationId": "companyInfo",
                "parameters": [
                    {
                        "name": "auth_token",
                        "in": "header",
                        "description": "The authorization token",
                        "required": true,
                        "schema": {
                            "type": "string"
                        }
                    },
                    {
                        "name": "_id",
                        "in": "path",
                        "description": "The Object Id of company that get user info",
                        "required": true,
                        "schema": {
                            "type": "string"
                        }
                    }
                ],
                "responses": {
                    "200": {
                        "description": "get company info by _id successfully"
                    },
                    "400": {
                        "description": "parameter error"
                    },
                    "403": {
                        "description": "authorize error"
                    },
                    "404": {
                        "description": "not found error"
                    },
                    "500": {
                        "description": "internal server error"
                    }
                }
            }
        },
        "/admin/area/add": {
            "post": {
                "tags": [
                    "Admin Controller"
                ],
                "summary": "Add area",
                "description": "",
                "operationId": "addArea",
                "parameters": [
                    {
                        "name": "auth_token",
                        "in": "header",
                        "description": "The authorization token",
                        "required": true,
                        "schema": {
                            "type": "string"
                        }
                    },
                    {
                        "name": "name",
                        "in": "query",
                        "description": "The area name",
                        "required": true,
                        "schema": {
                            "type": "string",
                            "maxLength": 255,
                            "minLength": 4
                        }
                    },
                    {
                        "name": "company_id",
                        "in": "query",
                        "description": "company id of area",
                        "schema": {
                            "type": "Object Id"
                        }
                    }
                ],
                "responses": {
                    "201": {
                        "description": "add new area success"
                    },
                    "400": {
                        "description": "parameter error"
                    },
                    "403": {
                        "description": "authorize error"
                    },
                    "404": {
                        "description": "not found error"
                    },
                    "500": {
                        "description": "internal server error"
                    }
                }
            }
        },
        "/admin/area/edit/{_id}": {
            "put": {
                "tags": [
                    "Admin Controller"
                ],
                "summary": "Edit area by _id",
                "description": "",
                "operationId": "editArea",
                "parameters": [
                    {
                        "name": "auth_token",
                        "in": "header",
                        "description": "The authorization token",
                        "required": true,
                        "schema": {
                            "type": "string"
                        }
                    },
                    {
                        "name": "_id",
                        "in": "path",
                        "description": "The area Object Id",
                        "required": true,
                        "schema": {
                            "type": "string"
                        }
                    },
                    {
                        "name": "name",
                        "in": "query",
                        "description": "The area name",
                        "required": true,
                        "schema": {
                            "type": "string",
                            "maxLength": 255,
                            "minLength": 4
                        }
                    },
                    {
                        "name": "company_id",
                        "in": "query",
                        "description": "company id of area",
                        "schema": {
                            "type": "Object Id"
                        }
                    }
                ],
                "responses": {
                    "200": {
                        "description": "area info edit success"
                    },
                    "400": {
                        "description": "parameter error"
                    },
                    "403": {
                        "description": "authorize error"
                    },
                    "404": {
                        "description": "not found error"
                    },
                    "500": {
                        "description": "internal server error"
                    }
                }
            }
        },
        "/admin/area/delete/{_id}": {
            "delete": {
                "tags": [
                    "Admin Controller"
                ],
                "summary": "Delete area",
                "description": "",
                "operationId": "deleteArea",
                "parameters": [
                    {
                        "name": "auth_token",
                        "in": "header",
                        "description": "The authorization token",
                        "required": true,
                        "schema": {
                            "type": "string"
                        }
                    },
                    {
                        "name": "_id",
                        "in": "path",
                        "description": "The area Object Id",
                        "required": true,
                        "schema": {
                            "type": "string"
                        }
                    }
                ],
                "responses": {
                    "200": {
                        "description": "area delete success"
                    },
                    "400": {
                        "description": "parameter error"
                    },
                    "403": {
                        "description": "authorize error"
                    },
                    "404": {
                        "description": "not found error"
                    },
                    "500": {
                        "description": "internal server error"
                    }
                }
            }
        },
        "/admin/area": {
            "get": {
                "tags": [
                    "Admin Controller"
                ],
                "summary": "Get all area list",
                "description": "",
                "operationId": "getArea",
                "parameters": [
                    {
                        "name": "auth_token",
                        "in": "header",
                        "description": "The authorization token",
                        "required": true,
                        "schema": {
                            "type": "string"
                        }
                    }
                ],
                "responses": {
                    "200": {
                        "description": "all area list get successfully"
                    },
                    "400": {
                        "description": "parameter error"
                    },
                    "403": {
                        "description": "authorize error"
                    },
                    "404": {
                        "description": "not found error"
                    },
                    "500": {
                        "description": "internal server error"
                    }
                }
            }
        },
        "/admin/area/{_id}": {
            "get": {
                "tags": [
                    "Admin Controller"
                ],
                "summary": "Get area list by Id",
                "description": "",
                "operationId": "areaInfo",
                "parameters": [
                    {
                        "name": "auth_token",
                        "in": "header",
                        "description": "The authorization token",
                        "required": true,
                        "schema": {
                            "type": "string"
                        }
                    },
                    {
                        "name": "_id",
                        "in": "path",
                        "description": "The Object Id of company that get area info",
                        "required": true,
                        "schema": {
                            "type": "string"
                        }
                    }
                ],
                "responses": {
                    "200": {
                        "description": "get area info by id success"
                    },
                    "400": {
                        "description": "parameter error"
                    },
                    "403": {
                        "description": "authorize error"
                    },
                    "404": {
                        "description": "not found error"
                    },
                    "500": {
                        "description": "internal server error"
                    }
                }
            }
        },
        "/admin/area/company/{_id}": {
            "get": {
                "tags": [
                    "Admin Controller"
                ],
                "summary": "Get area list by CompanyId",
                "description": "",
                "operationId": "areaInfo",
                "parameters": [
                    {
                        "name": "auth_token",
                        "in": "header",
                        "description": "The authorization token",
                        "required": true,
                        "schema": {
                            "type": "string"
                        }
                    },
                    {
                        "name": "_id",
                        "in": "path",
                        "description": "The Object Id of company that get area list",
                        "required": true,
                        "schema": {
                            "type": "string"
                        }
                    }
                ],
                "responses": {
                    "200": {
                        "description": "get area list by company_id success"
                    },
                    "400": {
                        "description": "parameter error"
                    },
                    "403": {
                        "description": "authorize error"
                    },
                    "404": {
                        "description": "not found error"
                    },
                    "500": {
                        "description": "internal server error"
                    }
                }
            }
        },
        "/customer/add": {
            "post": {
                "tags": [
                    "Customer Controller"
                ],
                "summary": "Add new customer",
                "description": "",
                "operationId": "addCustomer",
                "parameters": [
                    {
                        "name": "auth_token",
                        "in": "header",
                        "description": "The authorization token",
                        "required": true,
                        "schema": {
                            "type": "string"
                        }
                    },
                    {
                        "name": "name",
                        "in": "query",
                        "description": "The customer name",
                        "required": true,
                        "schema": {
                            "type": "string",
                            "maxLength": 20,
                            "minLength": 6
                        }
                    },
                    {
                        "name": "email",
                        "in": "query",
                        "description": "The customer email",
                        "required": true,
                        "schema": {
                            "type": "string",
                            "format": "email"
                        }
                    },
                    {
                        "name": "phone",
                        "in": "query",
                        "description": "The customer phone number",
                        "required": true,
                        "schema": {
                            "type": "string",
                            "maxLength": 20,
                            "minLength": 10
                        }
                    },
                    {
                        "name": "address[]",
                        "in": "query",
                        "description": "address list of customer",
                        "required": true,
                        "style": "form",
                        "explode": true,
                        "schema": {
                            "type": "array",
                            "items": {
                                "type": "string"
                            }
                        }
                    },
                    {
                        "name": "location[]",
                        "in": "query",
                        "description": "location list of customer",
                        "required": true,
                        "style": "form",
                        "schema": {
                            "type": "array",
                            "items": {
                                "$ref": "#/components/schemas/Location"
                            }
                        }
                    },
                    {
                        "name": "default_address",
                        "in": "query",
                        "description": "default address index of customer",
                        "schema": {
                            "type": "integer"
                        }
                    },
                    {
                        "name": "products[]",
                        "in": "query",
                        "description": "products that the customer is interested in",
                        "required": true,
                        "style": "form",
                        "explode": true,
                        "schema": {
                            "type": "array",
                            "items": {
                                "type": "string"
                            }
                        }
                    },
                    {
                        "name": "services[]",
                        "in": "query",
                        "description": "services that the customer is interested in",
                        "required": true,
                        "style": "form",
                        "explode": true,
                        "schema": {
                            "type": "array",
                            "items": {
                                "type": "string"
                            }
                        }
                    },
                    {
                        "name": "area_id",
                        "in": "query",
                        "description": "area id of user",
                        "schema": {
                            "type": "Object Id"
                        }
                    }
                ],
                "responses": {
                    "201": {
                        "description": "new customer add success"
                    },
                    "400": {
                        "description": "parameter error"
                    },
                    "404": {
                        "description": "not found error"
                    },
                    "500": {
                        "description": "internal server error"
                    }
                }
            }
        },
        "/customer/edit/{_id}": {
            "put": {
                "tags": [
                    "Customer Controller"
                ],
                "summary": "Edit customer",
                "description": "",
                "operationId": "editCustomer",
                "parameters": [
                    {
                        "name": "auth_token",
                        "in": "header",
                        "description": "The authorization token",
                        "required": true,
                        "schema": {
                            "type": "string"
                        }
                    },
                    {
                        "name": "_id",
                        "in": "path",
                        "description": "The customer Object Id",
                        "required": true,
                        "schema": {
                            "type": "string"
                        }
                    },
                    {
                        "name": "name",
                        "in": "query",
                        "description": "The customer name",
                        "required": true,
                        "schema": {
                            "type": "string",
                            "maxLength": 20,
                            "minLength": 6
                        }
                    },
                    {
                        "name": "email",
                        "in": "query",
                        "description": "The customer email",
                        "required": true,
                        "schema": {
                            "type": "string",
                            "format": "email"
                        }
                    },
                    {
                        "name": "phone",
                        "in": "query",
                        "description": "The customer phone number",
                        "required": true,
                        "schema": {
                            "type": "string",
                            "maxLength": 20,
                            "minLength": 10
                        }
                    },
                    {
                        "name": "address[]",
                        "in": "query",
                        "description": "address list of customer",
                        "required": true,
                        "style": "form",
                        "explode": true,
                        "schema": {
                            "type": "array",
                            "items": {
                                "type": "string"
                            }
                        }
                    },
                    {
                        "name": "location[]",
                        "in": "query",
                        "description": "location list of customer",
                        "required": true,
                        "style": "form",
                        "schema": {
                            "type": "array",
                            "items": {
                                "$ref": "#/components/schemas/Location"
                            }
                        }
                    },
                    {
                        "name": "default_address",
                        "in": "query",
                        "description": "default address index of customer",
                        "schema": {
                            "type": "integer"
                        }
                    },
                    {
                        "name": "products[]",
                        "in": "query",
                        "description": "products that the customer is interested in",
                        "required": true,
                        "style": "form",
                        "explode": true,
                        "schema": {
                            "type": "array",
                            "items": {
                                "type": "string"
                            }
                        }
                    },
                    {
                        "name": "services[]",
                        "in": "query",
                        "description": "services that the customer is interested in",
                        "required": true,
                        "style": "form",
                        "explode": true,
                        "schema": {
                            "type": "array",
                            "items": {
                                "type": "string"
                            }
                        }
                    },
                    {
                        "name": "area_id",
                        "in": "query",
                        "description": "area id of user",
                        "schema": {
                            "type": "Object Id"
                        }
                    }
                ],
                "responses": {
                    "200": {
                        "description": "customer edit success"
                    },
                    "400": {
                        "description": "parameter error"
                    },
                    "404": {
                        "description": "not found error"
                    },
                    "500": {
                        "description": "internal server error"
                    }
                }
            }
        },
        "/customer/delete/{_id}": {
            "delete": {
                "tags": [
                    "Customer Controller"
                ],
                "summary": "Delete area",
                "description": "",
                "operationId": "deleteArea",
                "parameters": [
                    {
                        "name": "auth_token",
                        "in": "header",
                        "description": "The authorization token",
                        "required": true,
                        "schema": {
                            "type": "string"
                        }
                    },
                    {
                        "name": "_id",
                        "in": "path",
                        "description": "The customer Object Id",
                        "required": true,
                        "schema": {
                            "type": "string"
                        }
                    }
                ],
                "responses": {
                    "200": {
                        "description": "customer delete success"
                    },
                    "400": {
                        "description": "parameter error"
                    },
                    "403": {
                        "description": "authorize error"
                    },
                    "404": {
                        "description": "not found error"
                    },
                    "500": {
                        "description": "internal server error"
                    }
                }
            }
        },
        "/customer/get": {
            "get": {
                "tags": [
                    "Customer Controller"
                ],
                "summary": "Get all customer list",
                "description": "",
                "operationId": "getCustomer",
                "parameters": [
                    {
                        "name": "auth_token",
                        "in": "header",
                        "description": "The authorization token",
                        "required": true,
                        "schema": {
                            "type": "string"
                        }
                    }
                ],
                "responses": {
                    "200": {
                        "description": "all customer list get successfully"
                    },
                    "400": {
                        "description": "parameter error"
                    },
                    "403": {
                        "description": "authorize error"
                    },
                    "404": {
                        "description": "not found error"
                    },
                    "500": {
                        "description": "internal server error"
                    }
                }
            }
        },
        "/customer/get/{_id}": {
            "get": {
                "tags": [
                    "Customer Controller"
                ],
                "summary": "Get customer info by Id",
                "description": "",
                "operationId": "getCustomerInfo",
                "parameters": [
                    {
                        "name": "auth_token",
                        "in": "header",
                        "description": "The authorization token",
                        "required": true,
                        "schema": {
                            "type": "string"
                        }
                    },
                    {
                        "name": "_id",
                        "in": "path",
                        "description": "The Object Id of customer",
                        "required": true,
                        "schema": {
                            "type": "string"
                        }
                    }
                ],
                "responses": {
                    "200": {
                        "description": "customer info get successfully"
                    },
                    "400": {
                        "description": "parameter error"
                    },
                    "403": {
                        "description": "authorize error"
                    },
                    "404": {
                        "description": "not found error"
                    },
                    "500": {
                        "description": "internal server error"
                    }
                }
            }
        },
        "/customer/get_by": {
            "get": {
                "tags": [
                    "Customer Controller"
                ],
                "summary": "Get customer list by id array",
                "description": "",
                "operationId": "getCustomerInfo",
                "parameters": [
                    {
                        "name": "auth_token",
                        "in": "header",
                        "description": "The authorization token",
                        "required": true,
                        "schema": {
                            "type": "string"
                        }
                    },
                    {
                        "name": "search",
                        "in": "query",
                        "description": "Search string of customer name",
                        "schema": {
                            "type": "string"
                        }
                    },
                    {
                        "name": "start",
                        "in": "query",
                        "description": "start position that get customer list",
                        "required": true,
                        "schema": {
                            "type": "integer"
                        }
                    },
                    {
                        "name": "limit",
                        "in": "query",
                        "description": "limit count that get customer list",
                        "required": true,
                        "schema": {
                            "type": "integer"
                        }
                    }
                ],
                "responses": {
                    "200": {
                        "description": "customer list get successfully"
                    },
                    "400": {
                        "description": "parameter error"
                    },
                    "403": {
                        "description": "authorize error"
                    },
                    "404": {
                        "description": "not found error"
                    },
                    "500": {
                        "description": "internal server error"
                    }
                }
            }
        },
        "/customer/get_array": {
            "get": {
                "tags": [
                    "Customer Controller"
                ],
                "summary": "Get customer info by Array",
                "description": "",
                "operationId": "getCustomerArray",
                "parameters": [
                    {
                        "name": "auth_token",
                        "in": "header",
                        "description": "The authorization token",
                        "required": true,
                        "schema": {
                            "type": "string"
                        }
                    },
                    {
                        "name": "id_array[]",
                        "in": "query",
                        "description": "The Object Id Array of customer",
                        "required": true,
                        "schema": {
                            "type": "array",
                            "items": {
                                "type": "string"
                            }
                        }
                    },
                    {
                        "name": "expenses[]",
                        "in": "query",
                        "description": "The Object Id Array of expenses",
                        "required": true,
                        "schema": {
                            "type": "array",
                            "items": {
                                "type": "string"
                            }
                        }
                    }
                ],
                "responses": {
                    "200": {
                        "description": "customer list get successfully"
                    },
                    "400": {
                        "description": "parameter error"
                    },
                    "403": {
                        "description": "authorize error"
                    },
                    "404": {
                        "description": "not found error"
                    },
                    "500": {
                        "description": "internal server error"
                    }
                }
            }
        },
        "/route/add": {
            "post": {
                "tags": [
                    "Route Controller"
                ],
                "summary": "Add route",
                "description": "",
                "operationId": "addRoute",
                "parameters": [
                    {
                        "name": "auth_token",
                        "in": "header",
                        "description": "The authorization token",
                        "required": true,
                        "schema": {
                            "type": "string"
                        }
                    },
                    {
                        "name": "route",
                        "in": "query",
                        "description": "The route info",
                        "required": true,
                        "schema": {
                            "type": "string"
                        }
                    }
                ],
                "responses": {
                    "201": {
                        "description": "add new route success"
                    },
                    "400": {
                        "description": "parameter error"
                    },
                    "403": {
                        "description": "authorize error"
                    },
                    "404": {
                        "description": "not found error"
                    },
                    "500": {
                        "description": "internal server error"
                    }
                }
            }
        },
        "/route/edit/{_id}": {
            "put": {
                "tags": [
                    "Route Controller"
                ],
                "summary": "Edit route",
                "description": "",
                "operationId": "editRoute",
                "parameters": [
                    {
                        "name": "auth_token",
                        "in": "header",
                        "description": "The authorization token",
                        "required": true,
                        "schema": {
                            "type": "string"
                        }
                    },
                    {
                        "name": "_id",
                        "in": "path",
                        "description": "The Route Object Id",
                        "required": true,
                        "schema": {
                            "type": "string"
                        }
                    },
                    {
                        "name": "name",
                        "in": "query",
                        "description": "The route name",
                        "required": true,
                        "schema": {
                            "type": "string",
                            "maxLength": 255,
                            "minLength": 4
                        }
                    },
                    {
                        "name": "created_user",
                        "in": "query",
                        "description": "The Object Id of user that created this route",
                        "required": true,
                        "schema": {
                            "type": "string"
                        }
                    },
                    {
                        "name": "assigned_user",
                        "in": "query",
                        "description": "The Object Id of user that assigned this route",
                        "schema": {
                            "type": "string"
                        }
                    },
                    {
                        "name": "is_approved",
                        "in": "query",
                        "description": "Approve status of route",
                        "required": true,
                        "schema": {
                            "type": "boolean",
                            "default": false
                        }
                    }
                ],
                "responses": {
                    "200": {
                        "description": "edit route success"
                    },
                    "400": {
                        "description": "parameter error"
                    },
                    "403": {
                        "description": "authorize error"
                    },
                    "404": {
                        "description": "not found error"
                    },
                    "500": {
                        "description": "internal server error"
                    }
                }
            }
        },
        "/route/delete/{_id}": {
            "delete": {
                "tags": [
                    "Route Controller"
                ],
                "summary": "Delete Route",
                "description": "",
                "operationId": "deleteRoute",
                "parameters": [
                    {
                        "name": "auth_token",
                        "in": "header",
                        "description": "The authorization token",
                        "required": true,
                        "schema": {
                            "type": "string"
                        }
                    },
                    {
                        "name": "_id",
                        "in": "path",
                        "description": "The Object Id of Route",
                        "required": true,
                        "schema": {
                            "type": "string"
                        }
                    }
                ],
                "responses": {
                    "200": {
                        "description": "delete route success"
                    },
                    "400": {
                        "description": "parameter error"
                    },
                    "403": {
                        "description": "authorize error"
                    },
                    "404": {
                        "description": "not found error"
                    },
                    "500": {
                        "description": "internal server error"
                    }
                }
            }
        },
        "/route/get": {
            "get": {
                "tags": [
                    "Route Controller"
                ],
                "summary": "Get all route list",
                "description": "",
                "operationId": "getRoute",
                "parameters": [
                    {
                        "name": "auth_token",
                        "in": "header",
                        "description": "The authorization token",
                        "required": true,
                        "schema": {
                            "type": "string"
                        }
                    }
                ],
                "responses": {
                    "200": {
                        "description": "all route list get successfully"
                    },
                    "400": {
                        "description": "parameter error"
                    },
                    "403": {
                        "description": "authorize error"
                    },
                    "404": {
                        "description": "not found error"
                    },
                    "500": {
                        "description": "internal server error"
                    }
                }
            }
        },
        "/route/get_by": {
            "get": {
                "tags": [
                    "Route Controller"
                ],
                "summary": "Get route list by condition",
                "description": "",
                "operationId": "getRouteCond",
                "parameters": [
                    {
                        "name": "auth_token",
                        "in": "header",
                        "description": "The authorization token",
                        "required": true,
                        "schema": {
                            "type": "string"
                        }
                    },
                    {
                        "name": "search",
                        "in": "query",
                        "description": "Search string of route name",
                        "schema": {
                            "type": "string"
                        }
                    },
                    {
                        "name": "start",
                        "in": "query",
                        "description": "start position that get route list",
                        "required": true,
                        "schema": {
                            "type": "integer"
                        }
                    },
                    {
                        "name": "limit",
                        "in": "query",
                        "description": "limit count that get route list",
                        "required": true,
                        "schema": {
                            "type": "integer"
                        }
                    }
                ],
                "responses": {
                    "200": {
                        "description": "route list get successfully"
                    },
                    "400": {
                        "description": "parameter error"
                    },
                    "403": {
                        "description": "authorize error"
                    },
                    "404": {
                        "description": "not found error"
                    },
                    "500": {
                        "description": "internal server error"
                    }
                }
            }
        },
        "/route/get/{_id}": {
            "get": {
                "tags": [
                    "Route Controller"
                ],
                "summary": "Get route info by Id",
                "description": "",
                "operationId": "areaInfo",
                "parameters": [
                    {
                        "name": "auth_token",
                        "in": "header",
                        "description": "The authorization token",
                        "required": true,
                        "schema": {
                            "type": "string"
                        }
                    },
                    {
                        "name": "_id",
                        "in": "path",
                        "description": "The Object Id of route",
                        "required": true,
                        "schema": {
                            "type": "string"
                        }
                    }
                ],
                "responses": {
                    "200": {
                        "description": "get route info by Id successfully"
                    },
                    "400": {
                        "description": "parameter error"
                    },
                    "403": {
                        "description": "authorize error"
                    },
                    "404": {
                        "description": "not found error"
                    },
                    "500": {
                        "description": "internal server error"
                    }
                }
            }
        },
        "/route/approve/{_id}": {
            "put": {
                "tags": [
                    "Route Controller"
                ],
                "summary": "Approve route",
                "description": "",
                "operationId": "approveRoute",
                "parameters": [
                    {
                        "name": "auth_token",
                        "in": "header",
                        "description": "The authorization token",
                        "required": true,
                        "schema": {
                            "type": "string"
                        }
                    },
                    {
                        "name": "_id",
                        "in": "path",
                        "description": "The Object Id of route",
                        "required": true,
                        "schema": {
                            "type": "string"
                        }
                    },
                    {
                        "name": "status",
                        "in": "query",
                        "description": "Approve status",
                        "required": true,
                        "schema": {
                            "type": "integer"
                        }
                    }
                ],
                "responses": {
                    "200": {
                        "description": "approve route success"
                    },
                    "400": {
                        "description": "parameter error"
                    },
                    "403": {
                        "description": "authorize error"
                    },
                    "404": {
                        "description": "not found error"
                    },
                    "500": {
                        "description": "internal server error"
                    }
                }
            }
        },
        "/route/assign": {
            "put": {
                "tags": [
                    "Route Controller"
                ],
                "summary": "Assign route",
                "description": "",
                "operationId": "assignRoute",
                "parameters": [
                    {
                        "name": "auth_token",
                        "in": "header",
                        "description": "The authorization token",
                        "required": true,
                        "schema": {
                            "type": "string"
                        }
                    },
                    {
                        "name": "route_id",
                        "in": "query",
                        "description": "The Object Id of route",
                        "required": true,
                        "schema": {
                            "type": "string"
                        }
                    },
                    {
                        "name": "user_id",
                        "in": "query",
                        "description": "The Object Id of route",
                        "schema": {
                            "type": "string"
                        }
                    }
                ],
                "responses": {
                    "200": {
                        "description": "assign route success"
                    },
                    "400": {
                        "description": "parameter error"
                    },
                    "403": {
                        "description": "authorize error"
                    },
                    "404": {
                        "description": "not found error"
                    },
                    "500": {
                        "description": "internal server error"
                    }
                }
            }
        },
        "/route/update-expense": {
            "put": {
                "tags": [
                    "Route Controller"
                ],
                "summary": "Assign route",
                "description": "",
                "operationId": "assignRoute",
                "parameters": [
                    {
                        "name": "auth_token",
                        "in": "header",
                        "description": "The authorization token",
                        "required": true,
                        "schema": {
                            "type": "string"
                        }
                    },
                    {
                        "name": "route_id",
                        "in": "query",
                        "description": "The Object Id of route",
                        "required": true,
                        "schema": {
                            "type": "string"
                        }
                    },
                    {
                        "name": "is_update",
                        "in": "query",
                        "description": "The update status",
                        "required": true,
                        "schema": {
                            "type": "string",
                            "enum": [
                                "true",
                                "false"
                            ]
                        }
                    },
                    {
                        "name": "expenses",
                        "in": "query",
                        "description": "The JSON String for expense data",
                        "required": true,
                        "schema": {
                            "type": "string"
                        }
                    }
                ],
                "responses": {
                    "200": {
                        "description": "assign route success"
                    },
                    "400": {
                        "description": "parameter error"
                    },
                    "403": {
                        "description": "authorize error"
                    },
                    "404": {
                        "description": "not found error"
                    },
                    "500": {
                        "description": "internal server error"
                    }
                }
            }
        },
        "/route/update-customer": {
            "put": {
                "tags": [
                    "Route Controller"
                ],
                "summary": "Assign route",
                "description": "",
                "operationId": "assignRoute",
                "parameters": [
                    {
                        "name": "auth_token",
                        "in": "header",
                        "description": "The authorization token",
                        "required": true,
                        "schema": {
                            "type": "string"
                        }
                    },
                    {
                        "name": "route_id",
                        "in": "query",
                        "description": "The Object Id of route",
                        "required": true,
                        "schema": {
                            "type": "string"
                        }
                    },
                    {
                        "name": "expenses",
                        "in": "query",
                        "description": "The JSON String for expense data",
                        "required": true,
                        "schema": {
                            "type": "string"
                        }
                    },
                    {
                        "name": "customer_list",
                        "in": "query",
                        "description": "The JSON String for customer list data",
                        "required": true,
                        "schema": {
                            "type": "string"
                        }
                    }
                ],
                "responses": {
                    "200": {
                        "description": "assign route success"
                    },
                    "400": {
                        "description": "parameter error"
                    },
                    "403": {
                        "description": "authorize error"
                    },
                    "404": {
                        "description": "not found error"
                    },
                    "500": {
                        "description": "internal server error"
                    }
                }
            }
        },
        "/route/update-checklist": {
            "put": {
                "tags": [
                    "Route Controller"
                ],
                "summary": "Assign route",
                "description": "",
                "operationId": "assignRoute",
                "parameters": [
                    {
                        "name": "auth_token",
                        "in": "header",
                        "description": "The authorization token",
                        "required": true,
                        "schema": {
                            "type": "string"
                        }
                    },
                    {
                        "name": "route_id",
                        "in": "query",
                        "description": "The Object Id of route",
                        "required": true,
                        "schema": {
                            "type": "string"
                        }
                    },
                    {
                        "name": "customer_list",
                        "in": "query",
                        "description": "The JSON String for customer list data",
                        "required": true,
                        "schema": {
                            "type": "string"
                        }
                    }
                ],
                "responses": {
                    "200": {
                        "description": "assign route success"
                    },
                    "400": {
                        "description": "parameter error"
                    },
                    "403": {
                        "description": "authorize error"
                    },
                    "404": {
                        "description": "not found error"
                    },
                    "500": {
                        "description": "internal server error"
                    }
                }
            }
        },
        "/route/update-checklist-route": {
            "put": {
                "tags": [
                    "Route Controller"
                ],
                "summary": "Assign route",
                "description": "",
                "operationId": "assignRoute",
                "parameters": [
                    {
                        "name": "auth_token",
                        "in": "header",
                        "description": "The authorization token",
                        "required": true,
                        "schema": {
                            "type": "string"
                        }
                    },
                    {
                        "name": "route_id",
                        "in": "query",
                        "description": "The Object Id of route",
                        "required": true,
                        "schema": {
                            "type": "string"
                        }
                    },
                    {
                        "name": "check_list",
                        "in": "query",
                        "description": "The JSON String for route check list data",
                        "required": true,
                        "schema": {
                            "type": "string"
                        }
                    }
                ],
                "responses": {
                    "200": {
                        "description": "assign route success"
                    },
                    "400": {
                        "description": "parameter error"
                    },
                    "403": {
                        "description": "authorize error"
                    },
                    "404": {
                        "description": "not found error"
                    },
                    "500": {
                        "description": "internal server error"
                    }
                }
            }
        },
        "/user/register": {
            "post": {
                "tags": [
                    "User Controller"
                ],
                "summary": "Register new user",
                "description": "",
                "operationId": "createUser",
                "parameters": [
                    {
                        "name": "auth_token",
                        "in": "header",
                        "description": "The authorization token",
                        "required": true,
                        "schema": {
                            "type": "string"
                        }
                    },
                    {
                        "name": "username",
                        "in": "query",
                        "description": "The user name",
                        "required": true,
                        "schema": {
                            "type": "string",
                            "maxLength": 20,
                            "minLength": 6
                        }
                    },
                    {
                        "name": "email",
                        "in": "query",
                        "description": "The user email",
                        "required": true,
                        "schema": {
                            "type": "string",
                            "format": "email"
                        }
                    },
                    {
                        "name": "phone",
                        "in": "query",
                        "description": "The user phone number",
                        "required": true,
                        "schema": {
                            "type": "string",
                            "maxLength": 20,
                            "minLength": 10
                        }
                    },
                    {
                        "name": "role",
                        "in": "query",
                        "description": "The user role",
                        "required": true,
                        "schema": {
                            "type": "string",
                            "enum": [
                                "USER",
                                "MANAGER",
                                "ADMIN"
                            ]
                        }
                    },
                    {
                        "name": "latitude",
                        "in": "query",
                        "description": "The current latitude of user",
                        "required": true,
                        "schema": {
                            "type": "number",
                            "format": "double"
                        }
                    },
                    {
                        "name": "longitude",
                        "in": "query",
                        "description": "The current longitude of user",
                        "required": true,
                        "schema": {
                            "type": "number",
                            "format": "double"
                        }
                    },
                    {
                        "name": "password",
                        "in": "query",
                        "description": "The user password",
                        "required": true,
                        "schema": {
                            "type": "string"
                        }
                    },
                    {
                        "name": "company_id",
                        "in": "query",
                        "description": "company id of user",
                        "schema": {
                            "type": "Object Id"
                        }
                    },
                    {
                        "name": "area_id",
                        "in": "query",
                        "description": "area id of user",
                        "schema": {
                            "type": "Object Id"
                        }
                    }
                ],
                "responses": {
                    "201": {
                        "description": "new user created successfully"
                    },
                    "400": {
                        "description": "parameter error"
                    },
                    "404": {
                        "description": "not found error"
                    },
                    "500": {
                        "description": "internal server error"
                    }
                }
            }
        },
        "/user/login": {
            "post": {
                "tags": [
                    "User Controller"
                ],
                "summary": "Login user into the system",
                "description": "",
                "operationId": "loginUser",
                "parameters": [
                    {
                        "name": "username",
                        "in": "query",
                        "description": "The username",
                        "required": true,
                        "schema": {
                            "type": "string",
                            "maxLength": 20,
                            "minLength": 6
                        }
                    },
                    {
                        "name": "password",
                        "in": "query",
                        "description": "The user password confirm",
                        "required": true,
                        "schema": {
                            "type": "string",
                            "format": "password",
                            "maxLength": 20,
                            "minLength": 6
                        }
                    }
                ],
                "responses": {
                    "200": {
                        "description": "logged in successfully"
                    },
                    "400": {
                        "description": "parameter error"
                    },
                    "404": {
                        "description": "not found error"
                    },
                    "500": {
                        "description": "internal server error"
                    }
                }
            }
        },
        "/user/get": {
            "get": {
                "tags": [
                    "User Controller"
                ],
                "summary": "Get all user list",
                "description": "",
                "operationId": "allUserList",
                "parameters": [
                    {
                        "name": "auth_token",
                        "in": "header",
                        "description": "The authorization token",
                        "required": true,
                        "schema": {
                            "type": "string"
                        }
                    }
                ],
                "responses": {
                    "200": {
                        "description": "get all user list successfully"
                    },
                    "400": {
                        "description": "parameter error"
                    },
                    "403": {
                        "description": "authorize error"
                    },
                    "404": {
                        "description": "not found error"
                    },
                    "500": {
                        "description": "internal server error"
                    }
                }
            }
        },
        "/user/get/{_id}": {
            "get": {
                "tags": [
                    "User Controller"
                ],
                "summary": "Get user info by Id",
                "description": "",
                "operationId": "userInfo",
                "parameters": [
                    {
                        "name": "auth_token",
                        "in": "header",
                        "description": "The authorization token",
                        "required": true,
                        "schema": {
                            "type": "string"
                        }
                    },
                    {
                        "name": "_id",
                        "in": "path",
                        "description": "The Object Id of user that get user info",
                        "required": true,
                        "schema": {
                            "type": "string"
                        }
                    }
                ],
                "responses": {
                    "200": {
                        "description": "get user info by _id successfully"
                    },
                    "400": {
                        "description": "parameter error"
                    },
                    "403": {
                        "description": "authorize error"
                    },
                    "404": {
                        "description": "not found error"
                    },
                    "500": {
                        "description": "internal server error"
                    }
                }
            }
        },
        "/user/logout": {
            "get": {
                "tags": [
                    "User Controller"
                ],
                "summary": "Logs out current logged in user session",
                "description": "",
                "operationId": "logoutUser",
                "parameters": [
                    {
                        "name": "auth_token",
                        "in": "header",
                        "description": "The authorization token",
                        "required": true,
                        "schema": {
                            "type": "string"
                        }
                    }
                ],
                "responses": {
                    "200": {
                        "description": "logout successfully"
                    },
                    "400": {
                        "description": "parameter error"
                    },
                    "403": {
                        "description": "authorize error"
                    },
                    "404": {
                        "description": "not found error"
                    },
                    "500": {
                        "description": "internal server error"
                    }
                }
            }
        },
        "/user/forgot": {
            "post": {
                "tags": [
                    "User Controller"
                ],
                "summary": "Reset password when user forgot password",
                "description": "",
                "operationId": "forgotPassword",
                "parameters": [
                    {
                        "name": "email",
                        "in": "query",
                        "description": "The email of user for reset password",
                        "required": true,
                        "schema": {
                            "type": "string",
                            "format": "email"
                        }
                    }
                ],
                "responses": {
                    "200": {
                        "description": "reset password successfully"
                    },
                    "400": {
                        "description": "parameter error"
                    },
                    "403": {
                        "description": "authorize error"
                    },
                    "404": {
                        "description": "not found error"
                    },
                    "500": {
                        "description": "internal server error"
                    }
                }
            }
        },
        "/user/approve_reset/{_id}": {
            "post": {
                "tags": [
                    "User Controller"
                ],
                "summary": "Admin approve reset password request of user",
                "description": "",
                "operationId": "approveReset",
                "parameters": [
                    {
                        "name": "auth_token",
                        "in": "header",
                        "description": "The authorization token",
                        "required": true,
                        "schema": {
                            "type": "string"
                        }
                    },
                    {
                        "name": "_id",
                        "in": "path",
                        "description": "The Object Id of user that get user info",
                        "required": true,
                        "schema": {
                            "type": "string"
                        }
                    }
                ],
                "responses": {
                    "200": {
                        "description": "reset password successfully"
                    },
                    "400": {
                        "description": "parameter error"
                    },
                    "403": {
                        "description": "authorize error"
                    },
                    "404": {
                        "description": "not found error"
                    },
                    "500": {
                        "description": "internal server error"
                    }
                }
            }
        },
        "/user/change": {
            "put": {
                "tags": [
                    "User Controller"
                ],
                "summary": "Change password of user",
                "description": "",
                "operationId": "changePassword",
                "parameters": [
                    {
                        "name": "auth_token",
                        "in": "header",
                        "description": "The authorization token",
                        "required": true,
                        "schema": {
                            "type": "string"
                        }
                    },
                    {
                        "name": "password",
                        "in": "query",
                        "description": "The user old password",
                        "required": true,
                        "schema": {
                            "type": "string",
                            "format": "password",
                            "maxLength": 20,
                            "minLength": 6
                        }
                    },
                    {
                        "name": "password_confirmation",
                        "in": "query",
                        "description": "The user old password confirm",
                        "required": true,
                        "schema": {
                            "type": "string",
                            "format": "password",
                            "maxLength": 20,
                            "minLength": 6
                        }
                    },
                    {
                        "name": "new_password",
                        "in": "query",
                        "description": "The user new password",
                        "required": true,
                        "schema": {
                            "type": "string",
                            "format": "password",
                            "maxLength": 20,
                            "minLength": 6
                        }
                    }
                ],
                "responses": {
                    "200": {
                        "description": "change password successfully"
                    },
                    "400": {
                        "description": "parameter error"
                    },
                    "403": {
                        "description": "authorize error"
                    },
                    "404": {
                        "description": "not found error"
                    },
                    "500": {
                        "description": "internal server error"
                    }
                }
            }
        },
        "/user/update": {
            "put": {
                "tags": [
                    "User Controller"
                ],
                "summary": "Update user info",
                "description": "",
                "operationId": "updateUser",
                "parameters": [
                    {
                        "name": "auth_token",
                        "in": "header",
                        "description": "The authorization token",
                        "required": true,
                        "schema": {
                            "type": "string"
                        }
                    },
                    {
                        "name": "username",
                        "in": "query",
                        "description": "The user name",
                        "required": true,
                        "schema": {
                            "type": "string",
                            "maxLength": 20,
                            "minLength": 6
                        }
                    },
                    {
                        "name": "email",
                        "in": "query",
                        "description": "The user email",
                        "required": true,
                        "schema": {
                            "type": "string",
                            "format": "email"
                        }
                    },
                    {
                        "name": "phone",
                        "in": "query",
                        "description": "The user phone number",
                        "required": true,
                        "schema": {
                            "type": "string",
                            "maxLength": 20,
                            "minLength": 10
                        }
                    }
                ],
                "responses": {
                    "200": {
                        "description": "update user info successfully"
                    },
                    "400": {
                        "description": "parameter error"
                    },
                    "403": {
                        "description": "authorize error"
                    },
                    "404": {
                        "description": "not found error"
                    },
                    "500": {
                        "description": "internal server error"
                    }
                }
            }
        },
        "/user/location": {
            "put": {
                "tags": [
                    "User Controller"
                ],
                "summary": "Change location of user",
                "description": "",
                "operationId": "changeLocation",
                "parameters": [
                    {
                        "name": "auth_token",
                        "in": "header",
                        "description": "The authorization token",
                        "required": true,
                        "schema": {
                            "type": "string"
                        }
                    },
                    {
                        "name": "latitude",
                        "in": "query",
                        "description": "The current latitude of user",
                        "required": true,
                        "schema": {
                            "type": "number",
                            "format": "double"
                        }
                    },
                    {
                        "name": "longitude",
                        "in": "query",
                        "description": "The current longitude of user",
                        "required": true,
                        "schema": {
                            "type": "number",
                            "format": "double"
                        }
                    }
                ],
                "responses": {
                    "200": {
                        "description": "update user location successfully"
                    },
                    "400": {
                        "description": "parameter error"
                    },
                    "403": {
                        "description": "authorize error"
                    },
                    "404": {
                        "description": "not found error"
                    },
                    "500": {
                        "description": "internal server error"
                    }
                }
            }
        }
    },
    "components": {
        "schemas": {
            "CheckList": {
                "properties": {
                    "customer_id": {
                        "description": "",
                        "type": "string"
                    },
                    "datetime": {
                        "description": "",
                        "type": "string",
                        "format": "date-time"
                    },
                    "latitude": {
                        "description": "",
                        "type": "number",
                        "format": "double"
                    },
                    "longitude": {
                        "description": "",
                        "type": "number",
                        "format": "double"
                    },
                    "purpose": {
                        "description": "",
                        "type": "string"
                    },
                    "visit_person": {
                        "description": "",
                        "type": "string"
                    },
                    "expenses": {
                        "description": "",
                        "type": "array",
                        "items": {
                            "type": "string"
                        }
                    },
                    "checkpoints": {
                        "description": "",
                        "type": "array",
                        "items": {
                            "$ref": "#/components/schemas/CheckPoint"
                        },
                        "xml": {
                            "name": "CheckPoint"
                        }
                    }
                },
                "type": "object",
                "xml": {
                    "name": "CheckList"
                }
            },
            "CheckPoint": {
                "properties": {
                    "name": {
                        "description": "",
                        "type": "string"
                    },
                    "detail": {
                        "description": "",
                        "type": "array",
                        "items": {
                            "type": "string"
                        }
                    },
                    "is_checked": {
                        "description": "",
                        "type": "array",
                        "items": {
                            "type": "boolean"
                        }
                    }
                },
                "type": "object",
                "xml": {
                    "name": "CheckPoint"
                }
            },
            "Location": {
                "properties": {
                    "latitude": {
                        "description": "",
                        "type": "number",
                        "format": "double"
                    },
                    "longitude": {
                        "description": "",
                        "type": "number",
                        "format": "double"
                    }
                },
                "type": "object",
                "xml": {
                    "name": "Location"
                }
            }
        }
    },
    "tags": [
        {
            "name": "User Controller",
            "description": "Operations about user"
        },
        {
            "name": "Customer Controller",
            "description": "Operations about customer"
        },
        {
            "name": "Route Controller",
            "description": "Operations about route"
        },
        {
            "name": "Admin Controller",
            "description": "Operations about admin"
        }
    ]
}